REM TRY      1   CC 48.25   CC(weak) 33.30   TIME       1 SECS
REM 
TITL gere_MAD_anom_diffs.ins
CELL 1.0 108.742 61.679 71.652 90 97.151 90
LATT -7
SYMM -X,Y,-Z
SFAC Se
UNIT 48
SE01   1  0.758827  0.932823  0.245764   1.0000  0.2
SE02   1  0.571739  1.251114  0.120543   0.8452  0.2
SE03   1  0.793762  1.044273  0.140502   0.8097  0.2
SE04   1  0.719429  1.202789  0.081412   0.6804  0.2
SE05   1  0.681572  0.868553  0.528754   0.6174  0.2
SE06   1  0.466347  1.187531  0.237853   0.5903  0.2
SE07   1  0.921722  1.210014  0.186049   0.5713  0.2
SE08   1  0.836777  0.775368  0.320769   0.4911  0.2
SE09   1  0.920158  1.288422  0.016867   0.4150  0.2
SE10   1  0.499352  1.255653  0.419798   0.3960  0.2
SE11   1  0.675652  1.015076  0.387091   0.3925  0.2
SE12   1  0.638069  1.416832  0.210196   0.3185  0.2
SE13   1  0.419052  1.165367  0.397963   0.2573  0.2
SE14   1  0.836273  1.427086  0.195647   0.1904  0.2
SE15   1  0.602730  1.285202  0.151442   0.1904  0.2
SE16   1  0.638748  1.473991  0.250525   0.1511  0.2
SE17   1  0.739899  0.741089  0.553404   0.1253  0.2
HKLF 3
END 
