atomname se
xyz   0.240866   0.018509   0.256007
xyz   0.429947   0.337214   0.380112
xyz   0.206302   0.128742   0.360824
xyz   0.281429   0.288317   0.418824
xyz   0.466781   0.273532   0.742192
xyz   0.423329  -0.201902   0.686400
xyz   0.318719  -0.048445   0.969921
xyz   0.161671  -0.138261   0.180525
xyz   0.006047  -0.157643   0.090142
xyz   0.326983   0.098605   0.112275
xyz   0.420112  -0.127226   0.520789
xyz   0.136055   0.000031   0.708964
